//Maya ASCII 2018 scene
//Name: prac1.0004.ma
//Last modified: Sun, Nov 04, 2018 11:29:54 AM
//Codeset: 1252
requires maya "2018";
currentUnit -l centimeter -a degree -t film;
fileInfo "application" "maya";
fileInfo "product" "Maya 2018";
fileInfo "version" "2018";
fileInfo "cutIdentifier" "201706261615-f9658c4cfc";
fileInfo "osv" "Microsoft Windows 8 Home Premium Edition, 64-bit  (Build 9200)\n";
fileInfo "license" "student";
createNode transform -s -n "persp";
	rename -uid "B7A2623B-4DB6-F9B8-EF8C-75BD7E090476";
	setAttr ".v" no;
	setAttr ".t" -type "double3" 627.89964024817618 -23.370385880310494 993.94533427368651 ;
	setAttr ".r" -type "double3" 1.4698910864156653 372.99999999947835 0 ;
createNode camera -s -n "perspShape" -p "persp";
	rename -uid "E3F1F18D-473F-5D0B-E870-1D860AE99108";
	setAttr -k off ".v" no;
	setAttr ".fl" 34.999999999999993;
	setAttr ".coi" 1005.2846681672864;
	setAttr ".imn" -type "string" "persp";
	setAttr ".den" -type "string" "persp_depth";
	setAttr ".man" -type "string" "persp_mask";
	setAttr ".hc" -type "string" "viewSet -p %camera";
createNode transform -s -n "top";
	rename -uid "F769E9E8-42EF-AEC7-76C0-75AFE0184778";
	setAttr ".v" no;
	setAttr ".t" -type "double3" 0 1000.1 0 ;
	setAttr ".r" -type "double3" -89.999999999999986 0 0 ;
createNode camera -s -n "topShape" -p "top";
	rename -uid "51F37D14-4ECA-BDFA-44DD-ECA886250CB6";
	setAttr -k off ".v" no;
	setAttr ".rnd" no;
	setAttr ".coi" 1000.1;
	setAttr ".ow" 30;
	setAttr ".imn" -type "string" "top";
	setAttr ".den" -type "string" "top_depth";
	setAttr ".man" -type "string" "top_mask";
	setAttr ".hc" -type "string" "viewSet -t %camera";
	setAttr ".o" yes;
createNode transform -s -n "front";
	rename -uid "1C47384B-4578-CFB3-11A2-2AAECF095AB0";
	setAttr ".v" no;
	setAttr ".t" -type "double3" 0 0 1000.1 ;
createNode camera -s -n "frontShape" -p "front";
	rename -uid "16146EE1-43F9-8847-253A-4FA51D7E162C";
	setAttr -k off ".v" no;
	setAttr ".rnd" no;
	setAttr ".coi" 1000.1;
	setAttr ".ow" 403.31210453523397;
	setAttr ".imn" -type "string" "front";
	setAttr ".den" -type "string" "front_depth";
	setAttr ".man" -type "string" "front_mask";
	setAttr ".hc" -type "string" "viewSet -f %camera";
	setAttr ".o" yes;
createNode transform -s -n "side";
	rename -uid "6ECC5BE6-434D-E45A-CF4F-F092CCF04AD8";
	setAttr ".v" no;
	setAttr ".t" -type "double3" 1000.1 0 0 ;
	setAttr ".r" -type "double3" 0 89.999999999999986 0 ;
createNode camera -s -n "sideShape" -p "side";
	rename -uid "44E0973D-457C-EC99-CAF8-A9BB04350B78";
	setAttr -k off ".v" no;
	setAttr ".rnd" no;
	setAttr ".coi" 1000.1;
	setAttr ".ow" 30;
	setAttr ".imn" -type "string" "side";
	setAttr ".den" -type "string" "side_depth";
	setAttr ".man" -type "string" "side_mask";
	setAttr ".hc" -type "string" "viewSet -s %camera";
	setAttr ".o" yes;
createNode transform -n "pCube1";
	rename -uid "9A1AC8C5-4A19-DE11-D7D7-03A3553DACCC";
	setAttr ".t" -type "double3" 0 120 0 ;
	setAttr ".rp" -type "double3" 0 -120 0 ;
	setAttr ".sp" -type "double3" 0 -120 0 ;
createNode mesh -n "pCubeShape1" -p "pCube1";
	rename -uid "60902E1D-4F5C-4A0A-70E6-C1A5C5C486F1";
	setAttr -k off ".v";
	setAttr ".vir" yes;
	setAttr ".vif" yes;
	setAttr ".pv" -type "double2" 0.5 0.125 ;
	setAttr ".uvst[0].uvsn" -type "string" "map1";
	setAttr -s 38 ".uvst[0].uvsp[0:37]" -type "float2" 0.375 0 0.625 0 0.375
		 0.25 0.625 0.25 0.375 0.5 0.625 0.5 0.375 0.75 0.625 0.75 0.375 1 0.625 1 0.875 0
		 0.875 0.25 0.125 0 0.125 0.25 0.58928567 0.25 0.58928567 0.5 0.58928567 0.75 0.58928567
		 1 0.5535714 0.25 0.5535714 0.5 0.5535714 0.75 0.5535714 1 0.51785713 0.25 0.51785713
		 0.5 0.51785713 0.75 0.51785713 1 0.48214287 0.25 0.48214287 0.5 0.48214287 0.75 0.48214287
		 1 0.4464286 0.25 0.4464286 0.5 0.4464286 0.75 0.4464286 1 0.4107143 0.25 0.4107143
		 0.5 0.4107143 0.75 0.4107143 1;
	setAttr ".cuvs" -type "string" "map1";
	setAttr ".dcc" -type "string" "Ambient+Diffuse";
	setAttr ".covm[0]"  0 1 1;
	setAttr ".cdvm[0]"  0 1 1;
	setAttr -s 32 ".vt[0:31]"  -240 -120 105 240 -120 105 -240 120 105 240 120 105
		 -240 120 -105 240 120 -105 -240 -120 -105 240 -120 -105 171.42858887 120 105 171.42858887 120 -105
		 171.42858887 -120 -105 171.42858887 -120 105 102.85714722 120 105 102.85714722 120 -105
		 102.85714722 -120 -105 102.85714722 -120 105 34.28572464 120 105 34.28572464 120 -105
		 34.28572464 -120 -105 34.28572464 -120 105 -34.28570557 120 105 -34.28570557 120 -105
		 -34.28570557 -120 -105 -34.28570557 -120 105 -102.85714722 120 105 -102.85714722 120 -105
		 -102.85714722 -120 -105 -102.85714722 -120 105 -171.42857361 120 105 -171.42857361 120 -105
		 -171.42857361 -120 -105 -171.42857361 -120 105;
	setAttr -s 54 ".ed[0:53]"  0 31 0 2 28 0 4 29 0 6 30 0 0 2 0 1 3 0 2 4 0
		 3 5 0 4 6 0 5 7 0 6 0 0 7 1 0 8 3 0 9 5 0 8 9 1 10 7 0 9 10 1 11 1 0 10 11 1 12 8 0
		 13 9 0 12 13 1 14 10 0 13 14 1 15 11 0 14 15 1 16 12 0 17 13 0 16 17 1 18 14 0 17 18 1
		 19 15 0 18 19 1 20 16 0 21 17 0 20 21 1 22 18 0 21 22 1 23 19 0 22 23 1 24 20 0 25 21 0
		 24 25 1 26 22 0 25 26 1 27 23 0 26 27 1 28 24 0 29 25 0 28 29 1 30 26 0 29 30 1 31 27 0
		 30 31 1;
	setAttr -s 23 -ch 92 ".fc[0:22]" -type "polyFaces" 
		f 4 1 49 -3 -7
		mu 0 4 2 34 35 4
		f 4 2 51 -4 -9
		mu 0 4 4 35 36 6
		f 4 3 53 -1 -11
		mu 0 4 6 36 37 8
		f 4 -12 -10 -8 -6
		mu 0 4 1 10 11 3
		f 4 10 4 6 8
		mu 0 4 12 0 2 13
		f 4 12 7 -14 -15
		mu 0 4 14 3 5 15
		f 4 -17 13 9 -16
		mu 0 4 16 15 5 7
		f 4 -19 15 11 -18
		mu 0 4 17 16 7 9
		f 4 19 14 -21 -22
		mu 0 4 18 14 15 19
		f 4 -24 20 16 -23
		mu 0 4 20 19 15 16
		f 4 -26 22 18 -25
		mu 0 4 21 20 16 17
		f 4 26 21 -28 -29
		mu 0 4 22 18 19 23
		f 4 -31 27 23 -30
		mu 0 4 24 23 19 20
		f 4 -33 29 25 -32
		mu 0 4 25 24 20 21
		f 4 33 28 -35 -36
		mu 0 4 26 22 23 27
		f 4 -38 34 30 -37
		mu 0 4 28 27 23 24
		f 4 -40 36 32 -39
		mu 0 4 29 28 24 25
		f 4 40 35 -42 -43
		mu 0 4 30 26 27 31
		f 4 -45 41 37 -44
		mu 0 4 32 31 27 28
		f 4 -47 43 39 -46
		mu 0 4 33 32 28 29
		f 4 47 42 -49 -50
		mu 0 4 34 30 31 35
		f 4 -52 48 44 -51
		mu 0 4 36 35 31 32
		f 4 -54 50 46 -53
		mu 0 4 37 36 32 33;
	setAttr ".cd" -type "dataPolyComponent" Index_Data Edge 0 ;
	setAttr ".cvd" -type "dataPolyComponent" Index_Data Vertex 0 ;
	setAttr ".pd[0]" -type "dataPolyComponent" Index_Data UV 0 ;
	setAttr ".hfd" -type "dataPolyComponent" Index_Data Face 0 ;
createNode transform -n "pCube2";
	rename -uid "57249186-4255-A4D5-367A-CE98C660EA02";
	setAttr ".t" -type "double3" 0 90 0 ;
	setAttr ".rp" -type "double3" 0 -90 0 ;
	setAttr ".sp" -type "double3" 0 -90 0 ;
createNode mesh -n "pCubeShape2" -p "pCube2";
	rename -uid "600FE865-4394-7D92-0127-83ADC3839DF6";
	setAttr -k off ".v";
	setAttr ".vir" yes;
	setAttr ".vif" yes;
	setAttr ".uvst[0].uvsn" -type "string" "map1";
	setAttr -s 14 ".uvst[0].uvsp[0:13]" -type "float2" 0.375 0 0.625 0 0.375
		 0.25 0.625 0.25 0.375 0.5 0.625 0.5 0.375 0.75 0.625 0.75 0.375 1 0.625 1 0.875 0
		 0.875 0.25 0.125 0 0.125 0.25;
	setAttr ".cuvs" -type "string" "map1";
	setAttr ".dcc" -type "string" "Ambient+Diffuse";
	setAttr ".covm[0]"  0 1 1;
	setAttr ".cdvm[0]"  0 1 1;
	setAttr -s 8 ".vt[0:7]"  -30 -90 30 30 -90 30 -30 90 30 30 90 30 -30 90 -30
		 30 90 -30 -30 -90 -30 30 -90 -30;
	setAttr -s 12 ".ed[0:11]"  0 1 0 2 3 0 4 5 0 6 7 0 0 2 0 1 3 0 2 4 0
		 3 5 0 4 6 0 5 7 0 6 0 0 7 1 0;
	setAttr -s 6 -ch 24 ".fc[0:5]" -type "polyFaces" 
		f 4 0 5 -2 -5
		mu 0 4 0 1 3 2
		f 4 1 7 -3 -7
		mu 0 4 2 3 5 4
		f 4 2 9 -4 -9
		mu 0 4 4 5 7 6
		f 4 3 11 -1 -11
		mu 0 4 6 7 9 8
		f 4 -12 -10 -8 -6
		mu 0 4 1 10 11 3
		f 4 10 4 6 8
		mu 0 4 12 0 2 13;
	setAttr ".cd" -type "dataPolyComponent" Index_Data Edge 0 ;
	setAttr ".cvd" -type "dataPolyComponent" Index_Data Vertex 0 ;
	setAttr ".pd[0]" -type "dataPolyComponent" Index_Data UV 0 ;
	setAttr ".hfd" -type "dataPolyComponent" Index_Data Face 0 ;
createNode transform -n "pCylinder1";
	rename -uid "2BF554FC-45F8-030B-FF4A-4693C822B548";
	setAttr ".t" -type "double3" 426.01209459532515 69.191162718022696 0 ;
	setAttr ".r" -type "double3" 0 0 -90 ;
	setAttr ".s" -type "double3" 118.81848622402109 61.607535067805628 118.81848622402109 ;
createNode transform -n "transform2" -p "pCylinder1";
	rename -uid "B12DBE68-48A2-767A-A8AD-92A0DC065C52";
	setAttr ".v" no;
createNode mesh -n "pCylinderShape1" -p "transform2";
	rename -uid "BAC25C17-4EB5-A3F2-16FC-AEBBB912CBA2";
	setAttr -k off ".v";
	setAttr ".io" yes;
	setAttr -s 2 ".iog[0].og";
	setAttr -av ".iog[0].og[0].gco";
	setAttr ".vir" yes;
	setAttr ".vif" yes;
	setAttr ".pv" -type "double2" 0.49999988079071045 0.50046992301940918 ;
	setAttr ".uvst[0].uvsn" -type "string" "map1";
	setAttr ".cuvs" -type "string" "map1";
	setAttr ".dcc" -type "string" "Ambient+Diffuse";
	setAttr ".covm[0]"  0 1 1;
	setAttr ".cdvm[0]"  0 1 1;
	setAttr -s 40 ".pt";
	setAttr ".pt[24]" -type "float3" 0 2.9802322e-08 0 ;
	setAttr ".pt[25]" -type "float3" -8.9406967e-08 2.9802317e-08 0 ;
	setAttr ".pt[26]" -type "float3" -8.9406967e-08 2.9802317e-08 0 ;
	setAttr ".pt[27]" -type "float3" -8.9406967e-08 2.9802317e-08 0 ;
	setAttr ".pt[28]" -type "float3" -8.9406967e-08 2.9802317e-08 0 ;
	setAttr ".pt[29]" -type "float3" -8.9406967e-08 2.9802317e-08 0 ;
	setAttr ".pt[30]" -type "float3" -8.9406967e-08 2.9802317e-08 0 ;
	setAttr ".pt[31]" -type "float3" -8.9406967e-08 2.9802317e-08 0 ;
	setAttr ".pt[32]" -type "float3" -8.9406967e-08 2.9802317e-08 0 ;
	setAttr ".pt[33]" -type "float3" -8.9406967e-08 2.9802317e-08 0 ;
	setAttr ".pt[34]" -type "float3" 0 2.9802322e-08 0 ;
	setAttr ".pt[36]" -type "float3" -8.9406967e-08 0 0 ;
	setAttr ".pt[37]" -type "float3" -8.9406967e-08 0 0 ;
	setAttr ".pt[38]" -type "float3" -8.9406967e-08 0 0 ;
	setAttr ".pt[39]" -type "float3" -8.9406967e-08 0 0 ;
	setAttr ".pt[40]" -type "float3" -8.9406967e-08 0 0 ;
	setAttr ".pt[41]" -type "float3" -8.9406967e-08 0 0 ;
	setAttr ".pt[42]" -type "float3" -8.9406967e-08 0 0 ;
	setAttr ".pt[43]" -type "float3" -8.9406967e-08 0 0 ;
	setAttr ".pt[44]" -type "float3" -8.9406967e-08 0 0 ;
	setAttr ".pt[46]" -type "float3" 4.7963113e-08 0 0 ;
	setAttr ".pt[47]" -type "float3" 4.7963113e-08 -1.8626449e-09 0 ;
	setAttr ".pt[48]" -type "float3" 4.7963113e-08 -1.8626449e-09 0 ;
	setAttr ".pt[49]" -type "float3" 4.7963113e-08 0 0 ;
	setAttr ".pt[50]" -type "float3" 4.7963113e-08 0 0 ;
	setAttr ".pt[51]" -type "float3" 4.7963113e-08 0 0 ;
	setAttr ".pt[52]" -type "float3" 4.7963113e-08 0 0 ;
	setAttr ".pt[53]" -type "float3" 4.7963113e-08 0 0 ;
	setAttr ".pt[54]" -type "float3" 4.7963113e-08 0 0 ;
	setAttr ".pt[55]" -type "float3" 4.7963113e-08 0 0 ;
	setAttr ".pt[56]" -type "float3" 4.7963113e-08 0 0 ;
	setAttr ".pt[57]" -type "float3" 4.7963113e-08 0 0 ;
	setAttr ".dr" 1;
createNode transform -n "pCube3";
	rename -uid "F3E94685-40C1-C1B3-01EC-2E96A417A3A7";
	setAttr ".t" -type "double3" 413.04535515053834 146.08151531119992 0 ;
	setAttr ".s" -type "double3" 161.74476007497765 161.74476007497765 268.2104036115777 ;
createNode transform -n "transform1" -p "pCube3";
	rename -uid "A5A093D5-4E5A-A68B-32A4-9CA6D79805F4";
	setAttr ".v" no;
createNode mesh -n "pCubeShape3" -p "transform1";
	rename -uid "FFE5037A-48FF-A577-2658-A8B923A37F4E";
	setAttr -k off ".v";
	setAttr ".io" yes;
	setAttr -s 2 ".iog[0].og";
	setAttr ".vir" yes;
	setAttr ".vif" yes;
	setAttr ".uvst[0].uvsn" -type "string" "map1";
	setAttr ".cuvs" -type "string" "map1";
	setAttr ".dcc" -type "string" "Ambient+Diffuse";
	setAttr ".covm[0]"  0 1 1;
	setAttr ".cdvm[0]"  0 1 1;
createNode transform -n "pCylinder2";
	rename -uid "2EAFEF4D-40C8-AC69-F29A-C1B66BC7138F";
	setAttr ".rp" -type "double3" 426.01199340820313 8.6995429992675781 -7.62939453125e-06 ;
	setAttr ".sp" -type "double3" 426.01199340820313 8.6995429992675781 -7.62939453125e-06 ;
createNode mesh -n "pCylinder2Shape" -p "pCylinder2";
	rename -uid "455C961E-4B91-2531-A34B-ECB75980C95D";
	setAttr -k off ".v";
	setAttr ".vir" yes;
	setAttr ".vif" yes;
	setAttr ".pv" -type "double2" 0.49999988079071045 0.50046992301940918 ;
	setAttr ".uvst[0].uvsn" -type "string" "map1";
	setAttr ".cuvs" -type "string" "map1";
	setAttr ".dcc" -type "string" "Ambient+Diffuse";
	setAttr ".covm[0]"  0 1 1;
	setAttr ".cdvm[0]"  0 1 1;
	setAttr ".dr" 1;
createNode lightLinker -s -n "lightLinker1";
	rename -uid "65CC209F-41C0-2D75-643D-34A0BE2D9B15";
	setAttr -s 2 ".lnk";
	setAttr -s 2 ".slnk";
createNode shapeEditorManager -n "shapeEditorManager";
	rename -uid "0AE38D1A-4454-8BF4-025C-E8951FCDD0B2";
createNode poseInterpolatorManager -n "poseInterpolatorManager";
	rename -uid "49E76D78-49B9-44DE-FAC5-FF9AFD26BCF4";
createNode displayLayerManager -n "layerManager";
	rename -uid "8CC27E56-41ED-D453-0CA8-B0BE2EBA593E";
createNode displayLayer -n "defaultLayer";
	rename -uid "E2B0D19B-4788-4AF4-87C4-F29C9592DA5B";
createNode renderLayerManager -n "renderLayerManager";
	rename -uid "000343A3-4DB1-8705-937D-5DB049722595";
createNode renderLayer -n "defaultRenderLayer";
	rename -uid "BA8D46C8-4879-62C7-5D55-38825E47648E";
	setAttr ".g" yes;
createNode script -n "uiConfigurationScriptNode";
	rename -uid "CF72774D-4D4B-E0FA-2253-01B3F5DCEAD6";
	setAttr ".b" -type "string" (
		"// Maya Mel UI Configuration File.\n//\n//  This script is machine generated.  Edit at your own risk.\n//\n//\n\nglobal string $gMainPane;\nif (`paneLayout -exists $gMainPane`) {\n\n\tglobal int $gUseScenePanelConfig;\n\tint    $useSceneConfig = $gUseScenePanelConfig;\n\tint    $menusOkayInPanels = `optionVar -q allowMenusInPanels`;\tint    $nVisPanes = `paneLayout -q -nvp $gMainPane`;\n\tint    $nPanes = 0;\n\tstring $editorName;\n\tstring $panelName;\n\tstring $itemFilterName;\n\tstring $panelConfig;\n\n\t//\n\t//  get current state of the UI\n\t//\n\tsceneUIReplacement -update $gMainPane;\n\n\t$panelName = `sceneUIReplacement -getNextPanel \"modelPanel\" (localizedPanelLabel(\"Top View\")) `;\n\tif (\"\" != $panelName) {\n\t\t$label = `panel -q -label $panelName`;\n\t\tmodelPanel -edit -l (localizedPanelLabel(\"Top View\")) -mbv $menusOkayInPanels  $panelName;\n\t\t$editorName = $panelName;\n        modelEditor -e \n            -camera \"top\" \n            -useInteractiveMode 0\n            -displayLights \"default\" \n            -displayAppearance \"smoothShaded\" \n            -activeOnly 0\n"
		+ "            -ignorePanZoom 0\n            -wireframeOnShaded 0\n            -headsUpDisplay 1\n            -holdOuts 1\n            -selectionHiliteDisplay 1\n            -useDefaultMaterial 0\n            -bufferMode \"double\" \n            -twoSidedLighting 0\n            -backfaceCulling 0\n            -xray 0\n            -jointXray 0\n            -activeComponentsXray 0\n            -displayTextures 0\n            -smoothWireframe 0\n            -lineWidth 1\n            -textureAnisotropic 0\n            -textureHilight 1\n            -textureSampling 2\n            -textureDisplay \"modulate\" \n            -textureMaxSize 32768\n            -fogging 0\n            -fogSource \"fragment\" \n            -fogMode \"linear\" \n            -fogStart 0\n            -fogEnd 100\n            -fogDensity 0.1\n            -fogColor 0.5 0.5 0.5 1 \n            -depthOfFieldPreview 1\n            -maxConstantTransparency 1\n            -rendererName \"vp2Renderer\" \n            -objectFilterShowInHUD 1\n            -isFiltered 0\n            -colorResolution 256 256 \n"
		+ "            -bumpResolution 512 512 \n            -textureCompression 0\n            -transparencyAlgorithm \"frontAndBackCull\" \n            -transpInShadows 0\n            -cullingOverride \"none\" \n            -lowQualityLighting 0\n            -maximumNumHardwareLights 1\n            -occlusionCulling 0\n            -shadingModel 0\n            -useBaseRenderer 0\n            -useReducedRenderer 0\n            -smallObjectCulling 0\n            -smallObjectThreshold -1 \n            -interactiveDisableShadows 0\n            -interactiveBackFaceCull 0\n            -sortTransparent 1\n            -controllers 1\n            -nurbsCurves 1\n            -nurbsSurfaces 1\n            -polymeshes 1\n            -subdivSurfaces 1\n            -planes 1\n            -lights 1\n            -cameras 1\n            -controlVertices 1\n            -hulls 1\n            -grid 1\n            -imagePlane 1\n            -joints 1\n            -ikHandles 1\n            -deformers 1\n            -dynamics 1\n            -particleInstancers 1\n            -fluids 1\n"
		+ "            -hairSystems 1\n            -follicles 1\n            -nCloths 1\n            -nParticles 1\n            -nRigids 1\n            -dynamicConstraints 1\n            -locators 1\n            -manipulators 1\n            -pluginShapes 1\n            -dimensions 1\n            -handles 1\n            -pivots 1\n            -textures 1\n            -strokes 1\n            -motionTrails 1\n            -clipGhosts 1\n            -greasePencils 1\n            -shadows 0\n            -captureSequenceNumber -1\n            -width 564\n            -height 348\n            -sceneRenderFilter 0\n            $editorName;\n        modelEditor -e -viewSelected 0 $editorName;\n\t\tif (!$useSceneConfig) {\n\t\t\tpanel -e -l $label $panelName;\n\t\t}\n\t}\n\n\n\t$panelName = `sceneUIReplacement -getNextPanel \"modelPanel\" (localizedPanelLabel(\"Side View\")) `;\n\tif (\"\" != $panelName) {\n\t\t$label = `panel -q -label $panelName`;\n\t\tmodelPanel -edit -l (localizedPanelLabel(\"Side View\")) -mbv $menusOkayInPanels  $panelName;\n\t\t$editorName = $panelName;\n        modelEditor -e \n"
		+ "            -camera \"side\" \n            -useInteractiveMode 0\n            -displayLights \"default\" \n            -displayAppearance \"smoothShaded\" \n            -activeOnly 0\n            -ignorePanZoom 0\n            -wireframeOnShaded 0\n            -headsUpDisplay 1\n            -holdOuts 1\n            -selectionHiliteDisplay 1\n            -useDefaultMaterial 0\n            -bufferMode \"double\" \n            -twoSidedLighting 0\n            -backfaceCulling 0\n            -xray 0\n            -jointXray 0\n            -activeComponentsXray 0\n            -displayTextures 0\n            -smoothWireframe 0\n            -lineWidth 1\n            -textureAnisotropic 0\n            -textureHilight 1\n            -textureSampling 2\n            -textureDisplay \"modulate\" \n            -textureMaxSize 32768\n            -fogging 0\n            -fogSource \"fragment\" \n            -fogMode \"linear\" \n            -fogStart 0\n            -fogEnd 100\n            -fogDensity 0.1\n            -fogColor 0.5 0.5 0.5 1 \n            -depthOfFieldPreview 1\n"
		+ "            -maxConstantTransparency 1\n            -rendererName \"vp2Renderer\" \n            -objectFilterShowInHUD 1\n            -isFiltered 0\n            -colorResolution 256 256 \n            -bumpResolution 512 512 \n            -textureCompression 0\n            -transparencyAlgorithm \"frontAndBackCull\" \n            -transpInShadows 0\n            -cullingOverride \"none\" \n            -lowQualityLighting 0\n            -maximumNumHardwareLights 1\n            -occlusionCulling 0\n            -shadingModel 0\n            -useBaseRenderer 0\n            -useReducedRenderer 0\n            -smallObjectCulling 0\n            -smallObjectThreshold -1 \n            -interactiveDisableShadows 0\n            -interactiveBackFaceCull 0\n            -sortTransparent 1\n            -controllers 1\n            -nurbsCurves 1\n            -nurbsSurfaces 1\n            -polymeshes 1\n            -subdivSurfaces 1\n            -planes 1\n            -lights 1\n            -cameras 1\n            -controlVertices 1\n            -hulls 1\n            -grid 1\n"
		+ "            -imagePlane 1\n            -joints 1\n            -ikHandles 1\n            -deformers 1\n            -dynamics 1\n            -particleInstancers 1\n            -fluids 1\n            -hairSystems 1\n            -follicles 1\n            -nCloths 1\n            -nParticles 1\n            -nRigids 1\n            -dynamicConstraints 1\n            -locators 1\n            -manipulators 1\n            -pluginShapes 1\n            -dimensions 1\n            -handles 1\n            -pivots 1\n            -textures 1\n            -strokes 1\n            -motionTrails 1\n            -clipGhosts 1\n            -greasePencils 1\n            -shadows 0\n            -captureSequenceNumber -1\n            -width 563\n            -height 347\n            -sceneRenderFilter 0\n            $editorName;\n        modelEditor -e -viewSelected 0 $editorName;\n\t\tif (!$useSceneConfig) {\n\t\t\tpanel -e -l $label $panelName;\n\t\t}\n\t}\n\n\n\t$panelName = `sceneUIReplacement -getNextPanel \"modelPanel\" (localizedPanelLabel(\"Front View\")) `;\n\tif (\"\" != $panelName) {\n"
		+ "\t\t$label = `panel -q -label $panelName`;\n\t\tmodelPanel -edit -l (localizedPanelLabel(\"Front View\")) -mbv $menusOkayInPanels  $panelName;\n\t\t$editorName = $panelName;\n        modelEditor -e \n            -camera \"front\" \n            -useInteractiveMode 0\n            -displayLights \"default\" \n            -displayAppearance \"smoothShaded\" \n            -activeOnly 0\n            -ignorePanZoom 0\n            -wireframeOnShaded 0\n            -headsUpDisplay 1\n            -holdOuts 1\n            -selectionHiliteDisplay 1\n            -useDefaultMaterial 0\n            -bufferMode \"double\" \n            -twoSidedLighting 0\n            -backfaceCulling 0\n            -xray 0\n            -jointXray 0\n            -activeComponentsXray 0\n            -displayTextures 0\n            -smoothWireframe 0\n            -lineWidth 1\n            -textureAnisotropic 0\n            -textureHilight 1\n            -textureSampling 2\n            -textureDisplay \"modulate\" \n            -textureMaxSize 32768\n            -fogging 0\n            -fogSource \"fragment\" \n"
		+ "            -fogMode \"linear\" \n            -fogStart 0\n            -fogEnd 100\n            -fogDensity 0.1\n            -fogColor 0.5 0.5 0.5 1 \n            -depthOfFieldPreview 1\n            -maxConstantTransparency 1\n            -rendererName \"vp2Renderer\" \n            -objectFilterShowInHUD 1\n            -isFiltered 0\n            -colorResolution 256 256 \n            -bumpResolution 512 512 \n            -textureCompression 0\n            -transparencyAlgorithm \"frontAndBackCull\" \n            -transpInShadows 0\n            -cullingOverride \"none\" \n            -lowQualityLighting 0\n            -maximumNumHardwareLights 1\n            -occlusionCulling 0\n            -shadingModel 0\n            -useBaseRenderer 0\n            -useReducedRenderer 0\n            -smallObjectCulling 0\n            -smallObjectThreshold -1 \n            -interactiveDisableShadows 0\n            -interactiveBackFaceCull 0\n            -sortTransparent 1\n            -controllers 1\n            -nurbsCurves 1\n            -nurbsSurfaces 1\n            -polymeshes 1\n"
		+ "            -subdivSurfaces 1\n            -planes 1\n            -lights 1\n            -cameras 1\n            -controlVertices 1\n            -hulls 1\n            -grid 1\n            -imagePlane 1\n            -joints 1\n            -ikHandles 1\n            -deformers 1\n            -dynamics 1\n            -particleInstancers 1\n            -fluids 1\n            -hairSystems 1\n            -follicles 1\n            -nCloths 1\n            -nParticles 1\n            -nRigids 1\n            -dynamicConstraints 1\n            -locators 1\n            -manipulators 1\n            -pluginShapes 1\n            -dimensions 1\n            -handles 1\n            -pivots 1\n            -textures 1\n            -strokes 1\n            -motionTrails 1\n            -clipGhosts 1\n            -greasePencils 1\n            -shadows 0\n            -captureSequenceNumber -1\n            -width 564\n            -height 347\n            -sceneRenderFilter 0\n            $editorName;\n        modelEditor -e -viewSelected 0 $editorName;\n\t\tif (!$useSceneConfig) {\n"
		+ "\t\t\tpanel -e -l $label $panelName;\n\t\t}\n\t}\n\n\n\t$panelName = `sceneUIReplacement -getNextPanel \"modelPanel\" (localizedPanelLabel(\"Persp View\")) `;\n\tif (\"\" != $panelName) {\n\t\t$label = `panel -q -label $panelName`;\n\t\tmodelPanel -edit -l (localizedPanelLabel(\"Persp View\")) -mbv $menusOkayInPanels  $panelName;\n\t\t$editorName = $panelName;\n        modelEditor -e \n            -camera \"persp\" \n            -useInteractiveMode 0\n            -displayLights \"default\" \n            -displayAppearance \"smoothShaded\" \n            -activeOnly 0\n            -ignorePanZoom 0\n            -wireframeOnShaded 0\n            -headsUpDisplay 1\n            -holdOuts 1\n            -selectionHiliteDisplay 1\n            -useDefaultMaterial 0\n            -bufferMode \"double\" \n            -twoSidedLighting 0\n            -backfaceCulling 0\n            -xray 0\n            -jointXray 0\n            -activeComponentsXray 0\n            -displayTextures 0\n            -smoothWireframe 0\n            -lineWidth 1\n            -textureAnisotropic 0\n            -textureHilight 1\n"
		+ "            -textureSampling 2\n            -textureDisplay \"modulate\" \n            -textureMaxSize 32768\n            -fogging 0\n            -fogSource \"fragment\" \n            -fogMode \"linear\" \n            -fogStart 0\n            -fogEnd 100\n            -fogDensity 0.1\n            -fogColor 0.5 0.5 0.5 1 \n            -depthOfFieldPreview 1\n            -maxConstantTransparency 1\n            -rendererName \"vp2Renderer\" \n            -objectFilterShowInHUD 1\n            -isFiltered 0\n            -colorResolution 256 256 \n            -bumpResolution 512 512 \n            -textureCompression 0\n            -transparencyAlgorithm \"frontAndBackCull\" \n            -transpInShadows 0\n            -cullingOverride \"none\" \n            -lowQualityLighting 0\n            -maximumNumHardwareLights 1\n            -occlusionCulling 0\n            -shadingModel 0\n            -useBaseRenderer 0\n            -useReducedRenderer 0\n            -smallObjectCulling 0\n            -smallObjectThreshold -1 \n            -interactiveDisableShadows 0\n"
		+ "            -interactiveBackFaceCull 0\n            -sortTransparent 1\n            -controllers 1\n            -nurbsCurves 1\n            -nurbsSurfaces 1\n            -polymeshes 1\n            -subdivSurfaces 1\n            -planes 1\n            -lights 1\n            -cameras 1\n            -controlVertices 1\n            -hulls 1\n            -grid 1\n            -imagePlane 1\n            -joints 1\n            -ikHandles 1\n            -deformers 1\n            -dynamics 1\n            -particleInstancers 1\n            -fluids 1\n            -hairSystems 1\n            -follicles 1\n            -nCloths 1\n            -nParticles 1\n            -nRigids 1\n            -dynamicConstraints 1\n            -locators 1\n            -manipulators 1\n            -pluginShapes 1\n            -dimensions 1\n            -handles 1\n            -pivots 1\n            -textures 1\n            -strokes 1\n            -motionTrails 1\n            -clipGhosts 1\n            -greasePencils 1\n            -shadows 0\n            -captureSequenceNumber -1\n"
		+ "            -width 1134\n            -height 739\n            -sceneRenderFilter 0\n            $editorName;\n        modelEditor -e -viewSelected 0 $editorName;\n\t\tif (!$useSceneConfig) {\n\t\t\tpanel -e -l $label $panelName;\n\t\t}\n\t}\n\n\n\t$panelName = `sceneUIReplacement -getNextPanel \"outlinerPanel\" (localizedPanelLabel(\"ToggledOutliner\")) `;\n\tif (\"\" != $panelName) {\n\t\t$label = `panel -q -label $panelName`;\n\t\toutlinerPanel -edit -l (localizedPanelLabel(\"ToggledOutliner\")) -mbv $menusOkayInPanels  $panelName;\n\t\t$editorName = $panelName;\n        outlinerEditor -e \n            -showShapes 0\n            -showAssignedMaterials 0\n            -showTimeEditor 1\n            -showReferenceNodes 0\n            -showReferenceMembers 0\n            -showAttributes 0\n            -showConnected 0\n            -showAnimCurvesOnly 0\n            -showMuteInfo 0\n            -organizeByLayer 1\n            -organizeByClip 1\n            -showAnimLayerWeight 1\n            -autoExpandLayers 1\n            -autoExpand 0\n            -showDagOnly 1\n            -showAssets 1\n"
		+ "            -showContainedOnly 1\n            -showPublishedAsConnected 0\n            -showParentContainers 0\n            -showContainerContents 1\n            -ignoreDagHierarchy 0\n            -expandConnections 0\n            -showUpstreamCurves 1\n            -showUnitlessCurves 1\n            -showCompounds 1\n            -showLeafs 1\n            -showNumericAttrsOnly 0\n            -highlightActive 1\n            -autoSelectNewObjects 0\n            -doNotSelectNewObjects 0\n            -dropIsParent 1\n            -transmitFilters 0\n            -setFilter \"defaultSetFilter\" \n            -showSetMembers 1\n            -allowMultiSelection 1\n            -alwaysToggleSelect 0\n            -directSelect 0\n            -isSet 0\n            -isSetMember 0\n            -displayMode \"DAG\" \n            -expandObjects 0\n            -setsIgnoreFilters 1\n            -containersIgnoreFilters 0\n            -editAttrName 0\n            -showAttrValues 0\n            -highlightSecondary 0\n            -showUVAttrsOnly 0\n            -showTextureNodesOnly 0\n"
		+ "            -attrAlphaOrder \"default\" \n            -animLayerFilterOptions \"allAffecting\" \n            -sortOrder \"none\" \n            -longNames 0\n            -niceNames 1\n            -showNamespace 1\n            -showPinIcons 0\n            -mapMotionTrails 0\n            -ignoreHiddenAttribute 0\n            -ignoreOutlinerColor 0\n            -renderFilterVisible 0\n            -renderFilterIndex 0\n            -selectionOrder \"chronological\" \n            -expandAttribute 0\n            $editorName;\n\t\tif (!$useSceneConfig) {\n\t\t\tpanel -e -l $label $panelName;\n\t\t}\n\t}\n\n\n\t$panelName = `sceneUIReplacement -getNextPanel \"outlinerPanel\" (localizedPanelLabel(\"Outliner\")) `;\n\tif (\"\" != $panelName) {\n\t\t$label = `panel -q -label $panelName`;\n\t\toutlinerPanel -edit -l (localizedPanelLabel(\"Outliner\")) -mbv $menusOkayInPanels  $panelName;\n\t\t$editorName = $panelName;\n        outlinerEditor -e \n            -showShapes 0\n            -showAssignedMaterials 0\n            -showTimeEditor 1\n            -showReferenceNodes 0\n            -showReferenceMembers 0\n"
		+ "            -showAttributes 0\n            -showConnected 0\n            -showAnimCurvesOnly 0\n            -showMuteInfo 0\n            -organizeByLayer 1\n            -organizeByClip 1\n            -showAnimLayerWeight 1\n            -autoExpandLayers 1\n            -autoExpand 0\n            -showDagOnly 1\n            -showAssets 1\n            -showContainedOnly 1\n            -showPublishedAsConnected 0\n            -showParentContainers 0\n            -showContainerContents 1\n            -ignoreDagHierarchy 0\n            -expandConnections 0\n            -showUpstreamCurves 1\n            -showUnitlessCurves 1\n            -showCompounds 1\n            -showLeafs 1\n            -showNumericAttrsOnly 0\n            -highlightActive 1\n            -autoSelectNewObjects 0\n            -doNotSelectNewObjects 0\n            -dropIsParent 1\n            -transmitFilters 0\n            -setFilter \"0\" \n            -showSetMembers 1\n            -allowMultiSelection 1\n            -alwaysToggleSelect 0\n            -directSelect 0\n            -displayMode \"DAG\" \n"
		+ "            -expandObjects 0\n            -setsIgnoreFilters 1\n            -containersIgnoreFilters 0\n            -editAttrName 0\n            -showAttrValues 0\n            -highlightSecondary 0\n            -showUVAttrsOnly 0\n            -showTextureNodesOnly 0\n            -attrAlphaOrder \"default\" \n            -animLayerFilterOptions \"allAffecting\" \n            -sortOrder \"none\" \n            -longNames 0\n            -niceNames 1\n            -showNamespace 1\n            -showPinIcons 0\n            -mapMotionTrails 0\n            -ignoreHiddenAttribute 0\n            -ignoreOutlinerColor 0\n            -renderFilterVisible 0\n            $editorName;\n\t\tif (!$useSceneConfig) {\n\t\t\tpanel -e -l $label $panelName;\n\t\t}\n\t}\n\n\n\t$panelName = `sceneUIReplacement -getNextScriptedPanel \"graphEditor\" (localizedPanelLabel(\"Graph Editor\")) `;\n\tif (\"\" != $panelName) {\n\t\t$label = `panel -q -label $panelName`;\n\t\tscriptedPanel -edit -l (localizedPanelLabel(\"Graph Editor\")) -mbv $menusOkayInPanels  $panelName;\n\n\t\t\t$editorName = ($panelName+\"OutlineEd\");\n"
		+ "            outlinerEditor -e \n                -showShapes 1\n                -showAssignedMaterials 0\n                -showTimeEditor 1\n                -showReferenceNodes 0\n                -showReferenceMembers 0\n                -showAttributes 1\n                -showConnected 1\n                -showAnimCurvesOnly 1\n                -showMuteInfo 0\n                -organizeByLayer 1\n                -organizeByClip 1\n                -showAnimLayerWeight 1\n                -autoExpandLayers 1\n                -autoExpand 1\n                -showDagOnly 0\n                -showAssets 1\n                -showContainedOnly 0\n                -showPublishedAsConnected 0\n                -showParentContainers 1\n                -showContainerContents 0\n                -ignoreDagHierarchy 0\n                -expandConnections 1\n                -showUpstreamCurves 1\n                -showUnitlessCurves 1\n                -showCompounds 0\n                -showLeafs 1\n                -showNumericAttrsOnly 1\n                -highlightActive 0\n"
		+ "                -autoSelectNewObjects 1\n                -doNotSelectNewObjects 0\n                -dropIsParent 1\n                -transmitFilters 1\n                -setFilter \"0\" \n                -showSetMembers 0\n                -allowMultiSelection 1\n                -alwaysToggleSelect 0\n                -directSelect 0\n                -displayMode \"DAG\" \n                -expandObjects 0\n                -setsIgnoreFilters 1\n                -containersIgnoreFilters 0\n                -editAttrName 0\n                -showAttrValues 0\n                -highlightSecondary 0\n                -showUVAttrsOnly 0\n                -showTextureNodesOnly 0\n                -attrAlphaOrder \"default\" \n                -animLayerFilterOptions \"allAffecting\" \n                -sortOrder \"none\" \n                -longNames 0\n                -niceNames 1\n                -showNamespace 1\n                -showPinIcons 1\n                -mapMotionTrails 1\n                -ignoreHiddenAttribute 0\n                -ignoreOutlinerColor 0\n                -renderFilterVisible 0\n"
		+ "                $editorName;\n\n\t\t\t$editorName = ($panelName+\"GraphEd\");\n            animCurveEditor -e \n                -displayKeys 1\n                -displayTangents 0\n                -displayActiveKeys 0\n                -displayActiveKeyTangents 1\n                -displayInfinities 0\n                -displayValues 0\n                -autoFit 1\n                -snapTime \"integer\" \n                -snapValue \"none\" \n                -showResults \"off\" \n                -showBufferCurves \"off\" \n                -smoothness \"fine\" \n                -resultSamples 1\n                -resultScreenSamples 0\n                -resultUpdate \"delayed\" \n                -showUpstreamCurves 1\n                -showCurveNames 0\n                -showActiveCurveNames 0\n                -stackedCurves 0\n                -stackedCurvesMin -1\n                -stackedCurvesMax 1\n                -stackedCurvesSpace 0.2\n                -displayNormalized 0\n                -preSelectionHighlight 0\n                -constrainDrag 0\n                -classicMode 1\n"
		+ "                -valueLinesToggle 1\n                $editorName;\n\t\tif (!$useSceneConfig) {\n\t\t\tpanel -e -l $label $panelName;\n\t\t}\n\t}\n\n\n\t$panelName = `sceneUIReplacement -getNextScriptedPanel \"dopeSheetPanel\" (localizedPanelLabel(\"Dope Sheet\")) `;\n\tif (\"\" != $panelName) {\n\t\t$label = `panel -q -label $panelName`;\n\t\tscriptedPanel -edit -l (localizedPanelLabel(\"Dope Sheet\")) -mbv $menusOkayInPanels  $panelName;\n\n\t\t\t$editorName = ($panelName+\"OutlineEd\");\n            outlinerEditor -e \n                -showShapes 1\n                -showAssignedMaterials 0\n                -showTimeEditor 1\n                -showReferenceNodes 0\n                -showReferenceMembers 0\n                -showAttributes 1\n                -showConnected 1\n                -showAnimCurvesOnly 1\n                -showMuteInfo 0\n                -organizeByLayer 1\n                -organizeByClip 1\n                -showAnimLayerWeight 1\n                -autoExpandLayers 1\n                -autoExpand 0\n                -showDagOnly 0\n                -showAssets 1\n"
		+ "                -showContainedOnly 0\n                -showPublishedAsConnected 0\n                -showParentContainers 1\n                -showContainerContents 0\n                -ignoreDagHierarchy 0\n                -expandConnections 1\n                -showUpstreamCurves 1\n                -showUnitlessCurves 0\n                -showCompounds 1\n                -showLeafs 1\n                -showNumericAttrsOnly 1\n                -highlightActive 0\n                -autoSelectNewObjects 0\n                -doNotSelectNewObjects 1\n                -dropIsParent 1\n                -transmitFilters 0\n                -setFilter \"0\" \n                -showSetMembers 0\n                -allowMultiSelection 1\n                -alwaysToggleSelect 0\n                -directSelect 0\n                -displayMode \"DAG\" \n                -expandObjects 0\n                -setsIgnoreFilters 1\n                -containersIgnoreFilters 0\n                -editAttrName 0\n                -showAttrValues 0\n                -highlightSecondary 0\n"
		+ "                -showUVAttrsOnly 0\n                -showTextureNodesOnly 0\n                -attrAlphaOrder \"default\" \n                -animLayerFilterOptions \"allAffecting\" \n                -sortOrder \"none\" \n                -longNames 0\n                -niceNames 1\n                -showNamespace 1\n                -showPinIcons 0\n                -mapMotionTrails 1\n                -ignoreHiddenAttribute 0\n                -ignoreOutlinerColor 0\n                -renderFilterVisible 0\n                $editorName;\n\n\t\t\t$editorName = ($panelName+\"DopeSheetEd\");\n            dopeSheetEditor -e \n                -displayKeys 1\n                -displayTangents 0\n                -displayActiveKeys 0\n                -displayActiveKeyTangents 0\n                -displayInfinities 0\n                -displayValues 0\n                -autoFit 0\n                -snapTime \"integer\" \n                -snapValue \"none\" \n                -outliner \"dopeSheetPanel1OutlineEd\" \n                -showSummary 1\n                -showScene 0\n                -hierarchyBelow 0\n"
		+ "                -showTicks 1\n                -selectionWindow 0 0 0 0 \n                $editorName;\n\t\tif (!$useSceneConfig) {\n\t\t\tpanel -e -l $label $panelName;\n\t\t}\n\t}\n\n\n\t$panelName = `sceneUIReplacement -getNextScriptedPanel \"timeEditorPanel\" (localizedPanelLabel(\"Time Editor\")) `;\n\tif (\"\" != $panelName) {\n\t\t$label = `panel -q -label $panelName`;\n\t\tscriptedPanel -edit -l (localizedPanelLabel(\"Time Editor\")) -mbv $menusOkayInPanels  $panelName;\n\t\tif (!$useSceneConfig) {\n\t\t\tpanel -e -l $label $panelName;\n\t\t}\n\t}\n\n\n\t$panelName = `sceneUIReplacement -getNextScriptedPanel \"clipEditorPanel\" (localizedPanelLabel(\"Trax Editor\")) `;\n\tif (\"\" != $panelName) {\n\t\t$label = `panel -q -label $panelName`;\n\t\tscriptedPanel -edit -l (localizedPanelLabel(\"Trax Editor\")) -mbv $menusOkayInPanels  $panelName;\n\n\t\t\t$editorName = clipEditorNameFromPanel($panelName);\n            clipEditor -e \n                -displayKeys 0\n                -displayTangents 0\n                -displayActiveKeys 0\n                -displayActiveKeyTangents 0\n"
		+ "                -displayInfinities 0\n                -displayValues 0\n                -autoFit 0\n                -snapTime \"none\" \n                -snapValue \"none\" \n                -initialized 0\n                -manageSequencer 0 \n                $editorName;\n\t\tif (!$useSceneConfig) {\n\t\t\tpanel -e -l $label $panelName;\n\t\t}\n\t}\n\n\n\t$panelName = `sceneUIReplacement -getNextScriptedPanel \"sequenceEditorPanel\" (localizedPanelLabel(\"Camera Sequencer\")) `;\n\tif (\"\" != $panelName) {\n\t\t$label = `panel -q -label $panelName`;\n\t\tscriptedPanel -edit -l (localizedPanelLabel(\"Camera Sequencer\")) -mbv $menusOkayInPanels  $panelName;\n\n\t\t\t$editorName = sequenceEditorNameFromPanel($panelName);\n            clipEditor -e \n                -displayKeys 0\n                -displayTangents 0\n                -displayActiveKeys 0\n                -displayActiveKeyTangents 0\n                -displayInfinities 0\n                -displayValues 0\n                -autoFit 0\n                -snapTime \"none\" \n                -snapValue \"none\" \n                -initialized 0\n"
		+ "                -manageSequencer 1 \n                $editorName;\n\t\tif (!$useSceneConfig) {\n\t\t\tpanel -e -l $label $panelName;\n\t\t}\n\t}\n\n\n\t$panelName = `sceneUIReplacement -getNextScriptedPanel \"hyperGraphPanel\" (localizedPanelLabel(\"Hypergraph Hierarchy\")) `;\n\tif (\"\" != $panelName) {\n\t\t$label = `panel -q -label $panelName`;\n\t\tscriptedPanel -edit -l (localizedPanelLabel(\"Hypergraph Hierarchy\")) -mbv $menusOkayInPanels  $panelName;\n\n\t\t\t$editorName = ($panelName+\"HyperGraphEd\");\n            hyperGraph -e \n                -graphLayoutStyle \"hierarchicalLayout\" \n                -orientation \"horiz\" \n                -mergeConnections 0\n                -zoom 1\n                -animateTransition 0\n                -showRelationships 1\n                -showShapes 0\n                -showDeformers 0\n                -showExpressions 0\n                -showConstraints 0\n                -showConnectionFromSelected 0\n                -showConnectionToSelected 0\n                -showConstraintLabels 0\n                -showUnderworld 0\n"
		+ "                -showInvisible 0\n                -transitionFrames 1\n                -opaqueContainers 0\n                -freeform 0\n                -imagePosition 0 0 \n                -imageScale 1\n                -imageEnabled 0\n                -graphType \"DAG\" \n                -heatMapDisplay 0\n                -updateSelection 1\n                -updateNodeAdded 1\n                -useDrawOverrideColor 0\n                -limitGraphTraversal -1\n                -range 0 0 \n                -iconSize \"smallIcons\" \n                -showCachedConnections 0\n                $editorName;\n\t\tif (!$useSceneConfig) {\n\t\t\tpanel -e -l $label $panelName;\n\t\t}\n\t}\n\n\n\t$panelName = `sceneUIReplacement -getNextScriptedPanel \"hyperShadePanel\" (localizedPanelLabel(\"Hypershade\")) `;\n\tif (\"\" != $panelName) {\n\t\t$label = `panel -q -label $panelName`;\n\t\tscriptedPanel -edit -l (localizedPanelLabel(\"Hypershade\")) -mbv $menusOkayInPanels  $panelName;\n\t\tif (!$useSceneConfig) {\n\t\t\tpanel -e -l $label $panelName;\n\t\t}\n\t}\n\n\n\t$panelName = `sceneUIReplacement -getNextScriptedPanel \"visorPanel\" (localizedPanelLabel(\"Visor\")) `;\n"
		+ "\tif (\"\" != $panelName) {\n\t\t$label = `panel -q -label $panelName`;\n\t\tscriptedPanel -edit -l (localizedPanelLabel(\"Visor\")) -mbv $menusOkayInPanels  $panelName;\n\t\tif (!$useSceneConfig) {\n\t\t\tpanel -e -l $label $panelName;\n\t\t}\n\t}\n\n\n\t$panelName = `sceneUIReplacement -getNextScriptedPanel \"nodeEditorPanel\" (localizedPanelLabel(\"Node Editor\")) `;\n\tif (\"\" != $panelName) {\n\t\t$label = `panel -q -label $panelName`;\n\t\tscriptedPanel -edit -l (localizedPanelLabel(\"Node Editor\")) -mbv $menusOkayInPanels  $panelName;\n\n\t\t\t$editorName = ($panelName+\"NodeEditorEd\");\n            nodeEditor -e \n                -allAttributes 0\n                -allNodes 0\n                -autoSizeNodes 1\n                -consistentNameSize 1\n                -createNodeCommand \"nodeEdCreateNodeCommand\" \n                -connectNodeOnCreation 0\n                -connectOnDrop 0\n                -highlightConnections 0\n                -copyConnectionsOnPaste 0\n                -defaultPinnedState 0\n                -additiveGraphingMode 0\n                -settingsChangedCallback \"nodeEdSyncControls\" \n"
		+ "                -traversalDepthLimit -1\n                -keyPressCommand \"nodeEdKeyPressCommand\" \n                -nodeTitleMode \"name\" \n                -gridSnap 0\n                -gridVisibility 1\n                -crosshairOnEdgeDragging 0\n                -popupMenuScript \"nodeEdBuildPanelMenus\" \n                -showNamespace 1\n                -showShapes 1\n                -showSGShapes 0\n                -showTransforms 1\n                -useAssets 1\n                -syncedSelection 1\n                -extendToShapes 1\n                -activeTab -1\n                -editorMode \"default\" \n                $editorName;\n\t\tif (!$useSceneConfig) {\n\t\t\tpanel -e -l $label $panelName;\n\t\t}\n\t}\n\n\n\t$panelName = `sceneUIReplacement -getNextScriptedPanel \"createNodePanel\" (localizedPanelLabel(\"Create Node\")) `;\n\tif (\"\" != $panelName) {\n\t\t$label = `panel -q -label $panelName`;\n\t\tscriptedPanel -edit -l (localizedPanelLabel(\"Create Node\")) -mbv $menusOkayInPanels  $panelName;\n\t\tif (!$useSceneConfig) {\n\t\t\tpanel -e -l $label $panelName;\n"
		+ "\t\t}\n\t}\n\n\n\t$panelName = `sceneUIReplacement -getNextScriptedPanel \"polyTexturePlacementPanel\" (localizedPanelLabel(\"UV Editor\")) `;\n\tif (\"\" != $panelName) {\n\t\t$label = `panel -q -label $panelName`;\n\t\tscriptedPanel -edit -l (localizedPanelLabel(\"UV Editor\")) -mbv $menusOkayInPanels  $panelName;\n\t\tif (!$useSceneConfig) {\n\t\t\tpanel -e -l $label $panelName;\n\t\t}\n\t}\n\n\n\t$panelName = `sceneUIReplacement -getNextScriptedPanel \"renderWindowPanel\" (localizedPanelLabel(\"Render View\")) `;\n\tif (\"\" != $panelName) {\n\t\t$label = `panel -q -label $panelName`;\n\t\tscriptedPanel -edit -l (localizedPanelLabel(\"Render View\")) -mbv $menusOkayInPanels  $panelName;\n\t\tif (!$useSceneConfig) {\n\t\t\tpanel -e -l $label $panelName;\n\t\t}\n\t}\n\n\n\t$panelName = `sceneUIReplacement -getNextPanel \"shapePanel\" (localizedPanelLabel(\"Shape Editor\")) `;\n\tif (\"\" != $panelName) {\n\t\t$label = `panel -q -label $panelName`;\n\t\tshapePanel -edit -l (localizedPanelLabel(\"Shape Editor\")) -mbv $menusOkayInPanels  $panelName;\n\t\tif (!$useSceneConfig) {\n\t\t\tpanel -e -l $label $panelName;\n"
		+ "\t\t}\n\t}\n\n\n\t$panelName = `sceneUIReplacement -getNextPanel \"posePanel\" (localizedPanelLabel(\"Pose Editor\")) `;\n\tif (\"\" != $panelName) {\n\t\t$label = `panel -q -label $panelName`;\n\t\tposePanel -edit -l (localizedPanelLabel(\"Pose Editor\")) -mbv $menusOkayInPanels  $panelName;\n\t\tif (!$useSceneConfig) {\n\t\t\tpanel -e -l $label $panelName;\n\t\t}\n\t}\n\n\n\t$panelName = `sceneUIReplacement -getNextScriptedPanel \"dynRelEdPanel\" (localizedPanelLabel(\"Dynamic Relationships\")) `;\n\tif (\"\" != $panelName) {\n\t\t$label = `panel -q -label $panelName`;\n\t\tscriptedPanel -edit -l (localizedPanelLabel(\"Dynamic Relationships\")) -mbv $menusOkayInPanels  $panelName;\n\t\tif (!$useSceneConfig) {\n\t\t\tpanel -e -l $label $panelName;\n\t\t}\n\t}\n\n\n\t$panelName = `sceneUIReplacement -getNextScriptedPanel \"relationshipPanel\" (localizedPanelLabel(\"Relationship Editor\")) `;\n\tif (\"\" != $panelName) {\n\t\t$label = `panel -q -label $panelName`;\n\t\tscriptedPanel -edit -l (localizedPanelLabel(\"Relationship Editor\")) -mbv $menusOkayInPanels  $panelName;\n\t\tif (!$useSceneConfig) {\n"
		+ "\t\t\tpanel -e -l $label $panelName;\n\t\t}\n\t}\n\n\n\t$panelName = `sceneUIReplacement -getNextScriptedPanel \"referenceEditorPanel\" (localizedPanelLabel(\"Reference Editor\")) `;\n\tif (\"\" != $panelName) {\n\t\t$label = `panel -q -label $panelName`;\n\t\tscriptedPanel -edit -l (localizedPanelLabel(\"Reference Editor\")) -mbv $menusOkayInPanels  $panelName;\n\t\tif (!$useSceneConfig) {\n\t\t\tpanel -e -l $label $panelName;\n\t\t}\n\t}\n\n\n\t$panelName = `sceneUIReplacement -getNextScriptedPanel \"componentEditorPanel\" (localizedPanelLabel(\"Component Editor\")) `;\n\tif (\"\" != $panelName) {\n\t\t$label = `panel -q -label $panelName`;\n\t\tscriptedPanel -edit -l (localizedPanelLabel(\"Component Editor\")) -mbv $menusOkayInPanels  $panelName;\n\t\tif (!$useSceneConfig) {\n\t\t\tpanel -e -l $label $panelName;\n\t\t}\n\t}\n\n\n\t$panelName = `sceneUIReplacement -getNextScriptedPanel \"dynPaintScriptedPanelType\" (localizedPanelLabel(\"Paint Effects\")) `;\n\tif (\"\" != $panelName) {\n\t\t$label = `panel -q -label $panelName`;\n\t\tscriptedPanel -edit -l (localizedPanelLabel(\"Paint Effects\")) -mbv $menusOkayInPanels  $panelName;\n"
		+ "\t\tif (!$useSceneConfig) {\n\t\t\tpanel -e -l $label $panelName;\n\t\t}\n\t}\n\n\n\t$panelName = `sceneUIReplacement -getNextScriptedPanel \"scriptEditorPanel\" (localizedPanelLabel(\"Script Editor\")) `;\n\tif (\"\" != $panelName) {\n\t\t$label = `panel -q -label $panelName`;\n\t\tscriptedPanel -edit -l (localizedPanelLabel(\"Script Editor\")) -mbv $menusOkayInPanels  $panelName;\n\t\tif (!$useSceneConfig) {\n\t\t\tpanel -e -l $label $panelName;\n\t\t}\n\t}\n\n\n\t$panelName = `sceneUIReplacement -getNextScriptedPanel \"profilerPanel\" (localizedPanelLabel(\"Profiler Tool\")) `;\n\tif (\"\" != $panelName) {\n\t\t$label = `panel -q -label $panelName`;\n\t\tscriptedPanel -edit -l (localizedPanelLabel(\"Profiler Tool\")) -mbv $menusOkayInPanels  $panelName;\n\t\tif (!$useSceneConfig) {\n\t\t\tpanel -e -l $label $panelName;\n\t\t}\n\t}\n\n\n\t$panelName = `sceneUIReplacement -getNextScriptedPanel \"contentBrowserPanel\" (localizedPanelLabel(\"Content Browser\")) `;\n\tif (\"\" != $panelName) {\n\t\t$label = `panel -q -label $panelName`;\n\t\tscriptedPanel -edit -l (localizedPanelLabel(\"Content Browser\")) -mbv $menusOkayInPanels  $panelName;\n"
		+ "\t\tif (!$useSceneConfig) {\n\t\t\tpanel -e -l $label $panelName;\n\t\t}\n\t}\n\n\n\tif ($useSceneConfig) {\n        string $configName = `getPanel -cwl (localizedPanelLabel(\"Current Layout\"))`;\n        if (\"\" != $configName) {\n\t\t\tpanelConfiguration -edit -label (localizedPanelLabel(\"Current Layout\")) \n\t\t\t\t-userCreated false\n\t\t\t\t-defaultImage \"\"\n\t\t\t\t-image \"\"\n\t\t\t\t-sc false\n\t\t\t\t-configString \"global string $gMainPane; paneLayout -e -cn \\\"single\\\" -ps 1 100 100 $gMainPane;\"\n\t\t\t\t-removeAllPanels\n\t\t\t\t-ap false\n\t\t\t\t\t(localizedPanelLabel(\"Persp View\")) \n\t\t\t\t\t\"modelPanel\"\n"
		+ "\t\t\t\t\t\"$panelName = `modelPanel -unParent -l (localizedPanelLabel(\\\"Persp View\\\")) -mbv $menusOkayInPanels `;\\n$editorName = $panelName;\\nmodelEditor -e \\n    -cam `findStartUpCamera persp` \\n    -useInteractiveMode 0\\n    -displayLights \\\"default\\\" \\n    -displayAppearance \\\"smoothShaded\\\" \\n    -activeOnly 0\\n    -ignorePanZoom 0\\n    -wireframeOnShaded 0\\n    -headsUpDisplay 1\\n    -holdOuts 1\\n    -selectionHiliteDisplay 1\\n    -useDefaultMaterial 0\\n    -bufferMode \\\"double\\\" \\n    -twoSidedLighting 0\\n    -backfaceCulling 0\\n    -xray 0\\n    -jointXray 0\\n    -activeComponentsXray 0\\n    -displayTextures 0\\n    -smoothWireframe 0\\n    -lineWidth 1\\n    -textureAnisotropic 0\\n    -textureHilight 1\\n    -textureSampling 2\\n    -textureDisplay \\\"modulate\\\" \\n    -textureMaxSize 32768\\n    -fogging 0\\n    -fogSource \\\"fragment\\\" \\n    -fogMode \\\"linear\\\" \\n    -fogStart 0\\n    -fogEnd 100\\n    -fogDensity 0.1\\n    -fogColor 0.5 0.5 0.5 1 \\n    -depthOfFieldPreview 1\\n    -maxConstantTransparency 1\\n    -rendererName \\\"vp2Renderer\\\" \\n    -objectFilterShowInHUD 1\\n    -isFiltered 0\\n    -colorResolution 256 256 \\n    -bumpResolution 512 512 \\n    -textureCompression 0\\n    -transparencyAlgorithm \\\"frontAndBackCull\\\" \\n    -transpInShadows 0\\n    -cullingOverride \\\"none\\\" \\n    -lowQualityLighting 0\\n    -maximumNumHardwareLights 1\\n    -occlusionCulling 0\\n    -shadingModel 0\\n    -useBaseRenderer 0\\n    -useReducedRenderer 0\\n    -smallObjectCulling 0\\n    -smallObjectThreshold -1 \\n    -interactiveDisableShadows 0\\n    -interactiveBackFaceCull 0\\n    -sortTransparent 1\\n    -controllers 1\\n    -nurbsCurves 1\\n    -nurbsSurfaces 1\\n    -polymeshes 1\\n    -subdivSurfaces 1\\n    -planes 1\\n    -lights 1\\n    -cameras 1\\n    -controlVertices 1\\n    -hulls 1\\n    -grid 1\\n    -imagePlane 1\\n    -joints 1\\n    -ikHandles 1\\n    -deformers 1\\n    -dynamics 1\\n    -particleInstancers 1\\n    -fluids 1\\n    -hairSystems 1\\n    -follicles 1\\n    -nCloths 1\\n    -nParticles 1\\n    -nRigids 1\\n    -dynamicConstraints 1\\n    -locators 1\\n    -manipulators 1\\n    -pluginShapes 1\\n    -dimensions 1\\n    -handles 1\\n    -pivots 1\\n    -textures 1\\n    -strokes 1\\n    -motionTrails 1\\n    -clipGhosts 1\\n    -greasePencils 1\\n    -shadows 0\\n    -captureSequenceNumber -1\\n    -width 1134\\n    -height 739\\n    -sceneRenderFilter 0\\n    $editorName;\\nmodelEditor -e -viewSelected 0 $editorName\"\n"
		+ "\t\t\t\t\t\"modelPanel -edit -l (localizedPanelLabel(\\\"Persp View\\\")) -mbv $menusOkayInPanels  $panelName;\\n$editorName = $panelName;\\nmodelEditor -e \\n    -cam `findStartUpCamera persp` \\n    -useInteractiveMode 0\\n    -displayLights \\\"default\\\" \\n    -displayAppearance \\\"smoothShaded\\\" \\n    -activeOnly 0\\n    -ignorePanZoom 0\\n    -wireframeOnShaded 0\\n    -headsUpDisplay 1\\n    -holdOuts 1\\n    -selectionHiliteDisplay 1\\n    -useDefaultMaterial 0\\n    -bufferMode \\\"double\\\" \\n    -twoSidedLighting 0\\n    -backfaceCulling 0\\n    -xray 0\\n    -jointXray 0\\n    -activeComponentsXray 0\\n    -displayTextures 0\\n    -smoothWireframe 0\\n    -lineWidth 1\\n    -textureAnisotropic 0\\n    -textureHilight 1\\n    -textureSampling 2\\n    -textureDisplay \\\"modulate\\\" \\n    -textureMaxSize 32768\\n    -fogging 0\\n    -fogSource \\\"fragment\\\" \\n    -fogMode \\\"linear\\\" \\n    -fogStart 0\\n    -fogEnd 100\\n    -fogDensity 0.1\\n    -fogColor 0.5 0.5 0.5 1 \\n    -depthOfFieldPreview 1\\n    -maxConstantTransparency 1\\n    -rendererName \\\"vp2Renderer\\\" \\n    -objectFilterShowInHUD 1\\n    -isFiltered 0\\n    -colorResolution 256 256 \\n    -bumpResolution 512 512 \\n    -textureCompression 0\\n    -transparencyAlgorithm \\\"frontAndBackCull\\\" \\n    -transpInShadows 0\\n    -cullingOverride \\\"none\\\" \\n    -lowQualityLighting 0\\n    -maximumNumHardwareLights 1\\n    -occlusionCulling 0\\n    -shadingModel 0\\n    -useBaseRenderer 0\\n    -useReducedRenderer 0\\n    -smallObjectCulling 0\\n    -smallObjectThreshold -1 \\n    -interactiveDisableShadows 0\\n    -interactiveBackFaceCull 0\\n    -sortTransparent 1\\n    -controllers 1\\n    -nurbsCurves 1\\n    -nurbsSurfaces 1\\n    -polymeshes 1\\n    -subdivSurfaces 1\\n    -planes 1\\n    -lights 1\\n    -cameras 1\\n    -controlVertices 1\\n    -hulls 1\\n    -grid 1\\n    -imagePlane 1\\n    -joints 1\\n    -ikHandles 1\\n    -deformers 1\\n    -dynamics 1\\n    -particleInstancers 1\\n    -fluids 1\\n    -hairSystems 1\\n    -follicles 1\\n    -nCloths 1\\n    -nParticles 1\\n    -nRigids 1\\n    -dynamicConstraints 1\\n    -locators 1\\n    -manipulators 1\\n    -pluginShapes 1\\n    -dimensions 1\\n    -handles 1\\n    -pivots 1\\n    -textures 1\\n    -strokes 1\\n    -motionTrails 1\\n    -clipGhosts 1\\n    -greasePencils 1\\n    -shadows 0\\n    -captureSequenceNumber -1\\n    -width 1134\\n    -height 739\\n    -sceneRenderFilter 0\\n    $editorName;\\nmodelEditor -e -viewSelected 0 $editorName\"\n"
		+ "\t\t\t\t$configName;\n\n            setNamedPanelLayout (localizedPanelLabel(\"Current Layout\"));\n        }\n\n        panelHistory -e -clear mainPanelHistory;\n        sceneUIReplacement -clear;\n\t}\n\n\ngrid -spacing 10 -size 400 -divisions 5 -displayAxes yes -displayGridLines yes -displayDivisionLines yes -displayPerspectiveLabels no -displayOrthographicLabels no -displayAxesBold yes -perspectiveLabelPosition axis -orthographicLabelPosition edge;\nviewManip -drawCompass 0 -compassAngle 0 -frontParameters \"\" -homeParameters \"\" -selectionLockParameters \"\";\n}\n");
	setAttr ".st" 3;
createNode script -n "sceneConfigurationScriptNode";
	rename -uid "8CBFAB2C-442D-AE38-11CF-4A975326ADBF";
	setAttr ".b" -type "string" "playbackOptions -min 1 -max 120 -ast 1 -aet 200 ";
	setAttr ".st" 6;
createNode polyCylinder -n "polyCylinder1";
	rename -uid "322F87BB-4061-BA59-F87F-13AB3BA3F3AC";
	setAttr ".sc" 1;
	setAttr ".cuv" 3;
createNode deleteComponent -n "deleteComponent1";
	rename -uid "3FACBEAB-410E-EBBA-2B8E-F886D15C3C27";
	setAttr ".dc" -type "componentList" 3 "f[5:13]" "f[25:33]" "f[45:53]";
createNode deleteComponent -n "deleteComponent2";
	rename -uid "11466731-433C-689D-49C9-48ABC8915096";
	setAttr ".dc" -type "componentList" 3 "f[4]" "f[15]" "f[26]";
createNode polySplitRing -n "polySplitRing1";
	rename -uid "2551C39E-4786-DD25-4CCD-71B596FA8B77";
	setAttr ".uopa" yes;
	setAttr ".ics" -type "componentList" 1 "e[20:30]";
	setAttr ".ix" -type "matrix" 2.6383003831403037e-14 -118.81848622402109 -0 0 61.607535067805628 1.3679620784535913e-14 0 0
		 0 -0 118.81848622402109 0 426.01209459532515 69.191162718022696 0 1;
	setAttr ".wt" 0.46354067325592041;
	setAttr ".re" 26;
	setAttr ".sma" 29.999999999999996;
	setAttr ".stp" 2;
	setAttr ".p[0]"  0 0 1;
	setAttr ".fq" yes;
createNode deleteComponent -n "deleteComponent3";
	rename -uid "4547FA3C-4178-5B09-CA20-1D84FA2EF3F7";
	setAttr ".dc" -type "componentList" 1 "f[41:48]";
createNode deleteComponent -n "deleteComponent4";
	rename -uid "007186CC-4C1F-E2A7-3415-A38455D671CB";
	setAttr ".dc" -type "componentList" 1 "f[20:29]";
createNode deleteComponent -n "deleteComponent5";
	rename -uid "E632E305-4537-31D9-F811-95A15AFCBC45";
	setAttr ".dc" -type "componentList" 1 "f[10:19]";
createNode polySmoothFace -n "polySmoothFace1";
	rename -uid "962E854F-4499-0065-4441-C6AC239731E8";
	setAttr ".ics" -type "componentList" 1 "f[*]";
	setAttr ".sdt" 2;
	setAttr ".suv" yes;
	setAttr ".ps" 0.10000000149011612;
	setAttr ".ro" 1;
	setAttr ".ma" yes;
	setAttr ".m08" yes;
createNode polySmoothFace -n "polySmoothFace2";
	rename -uid "C9ACFCAD-4671-791E-D78A-EDA2F8D7E3AB";
	setAttr ".ics" -type "componentList" 1 "f[0:87]";
	setAttr ".sdt" 2;
	setAttr ".suv" yes;
	setAttr ".ps" 0.10000000149011612;
	setAttr ".ro" 1;
	setAttr ".ma" yes;
	setAttr ".m08" yes;
createNode polyBridgeEdge -n "polyBridgeEdge1";
	rename -uid "9EE506FD-4EB0-95F1-6531-3C84AA8D48FB";
	setAttr ".ics" -type "componentList" 5 "e[96:103]" "e[124:127]" "e[200:203]" "e[208:211]" "e[256:259]";
	setAttr ".ix" -type "matrix" 2.6383003831403037e-14 -118.81848622402109 -0 0 61.607535067805628 1.3679620784535913e-14 0 0
		 0 -0 118.81848622402109 0 426.01209459532515 69.191162718022696 0 1;
	setAttr ".c[0]"  0 1 1;
	setAttr ".dv" 0;
	setAttr ".sv1" 15;
	setAttr ".sv2" 5;
	setAttr ".d" 1;
	setAttr ".sd" 1;
	setAttr ".td" 1;
createNode polyCloseBorder -n "polyCloseBorder1";
	rename -uid "C93BFE84-4566-AFA5-5130-48B275840BF8";
	setAttr ".ics" -type "componentList" 2 "e[40:79]" "e[793]";
createNode polyCloseBorder -n "polyCloseBorder2";
	rename -uid "E608B294-48EF-1CBF-6887-C2975EC509FB";
	setAttr ".ics" -type "componentList" 2 "e[0:39]" "e[792]";
createNode polyBridgeEdge -n "polyBridgeEdge2";
	rename -uid "B719E91B-4DB1-6E43-1ACE-5AAFCA0B5530";
	setAttr ".ics" -type "componentList" 4 "e[212:213]" "e[220:221]" "e[248:249]" "e[254:255]";
	setAttr ".ix" -type "matrix" 2.6383003831403037e-14 -118.81848622402109 -0 0 61.607535067805628 1.3679620784535913e-14 0 0
		 0 -0 118.81848622402109 0 426.01209459532515 69.191162718022696 0 1;
	setAttr ".c[0]"  0 1 1;
	setAttr ".dv" 0;
	setAttr ".sv1" 75;
	setAttr ".sv2" 64;
	setAttr ".d" 1;
createNode polyBridgeEdge -n "polyBridgeEdge3";
	rename -uid "E33F781C-4113-D4B1-AE42-0D958C83D513";
	setAttr ".ics" -type "componentList" 3 "e[222:225]" "e[246:247]" "e[252:253]";
	setAttr ".ix" -type "matrix" 2.6383003831403037e-14 -118.81848622402109 -0 0 61.607535067805628 1.3679620784535913e-14 0 0
		 0 -0 118.81848622402109 0 426.01209459532515 69.191162718022696 0 1;
	setAttr ".c[0]"  0 1 1;
	setAttr ".dv" 0;
	setAttr ".sv1" 72;
	setAttr ".sv2" 85;
	setAttr ".d" 1;
createNode polyBridgeEdge -n "polyBridgeEdge4";
	rename -uid "C28B801A-410A-1A2F-7CC4-FF8CFDE046DF";
	setAttr ".ics" -type "componentList" 2 "e[226:228]" "e[243:245]";
	setAttr ".ix" -type "matrix" 2.6383003831403037e-14 -118.81848622402109 -0 0 61.607535067805628 1.3679620784535913e-14 0 0
		 0 -0 118.81848622402109 0 426.01209459532515 69.191162718022696 0 1;
	setAttr ".c[0]"  0 1 1;
	setAttr ".dv" 0;
	setAttr ".sv1" 228;
	setAttr ".sv2" 88;
	setAttr ".d" 1;
	setAttr ".sd" 1;
createNode polyBridgeEdge -n "polyBridgeEdge5";
	rename -uid "7D704B85-437B-FEB9-FE21-299D51067C9E";
	setAttr ".ics" -type "componentList" 2 "e[229:230]" "e[241:242]";
	setAttr ".ix" -type "matrix" 2.6383003831403037e-14 -118.81848622402109 -0 0 61.607535067805628 1.3679620784535913e-14 0 0
		 0 -0 118.81848622402109 0 426.01209459532515 69.191162718022696 0 1;
	setAttr ".c[0]"  0 1 1;
	setAttr ".dv" 0;
	setAttr ".sv1" 230;
	setAttr ".sv2" 303;
	setAttr ".d" 1;
	setAttr ".sd" 1;
createNode polyBridgeEdge -n "polyBridgeEdge6";
	rename -uid "94373B10-479E-6DFB-805D-338FCAE5AE20";
	setAttr ".ics" -type "componentList" 2 "e[231:232]" "e[239:240]";
	setAttr ".ix" -type "matrix" 2.6383003831403037e-14 -118.81848622402109 -0 0 61.607535067805628 1.3679620784535913e-14 0 0
		 0 -0 118.81848622402109 0 426.01209459532515 69.191162718022696 0 1;
	setAttr ".c[0]"  0 1 1;
	setAttr ".dv" 0;
	setAttr ".sv1" 319;
	setAttr ".sv2" 301;
	setAttr ".d" 1;
	setAttr ".sd" 1;
createNode polyBridgeEdge -n "polyBridgeEdge7";
	rename -uid "68A30952-40E8-88DF-F65F-E3938BA063BC";
	setAttr ".ics" -type "componentList" 2 "e[233]" "e[238]";
	setAttr ".ix" -type "matrix" 2.6383003831403037e-14 -118.81848622402109 -0 0 61.607535067805628 1.3679620784535913e-14 0 0
		 0 -0 118.81848622402109 0 426.01209459532515 69.191162718022696 0 1;
	setAttr ".c[0]"  0 1 1;
	setAttr ".dv" 0;
	setAttr ".sv1" 96;
	setAttr ".sv2" 313;
	setAttr ".d" 1;
	setAttr ".sd" 1;
createNode polyBridgeEdge -n "polyBridgeEdge8";
	rename -uid "9A8E0667-48F0-1B86-1AB2-2BAC3FEE3E63";
	setAttr ".ics" -type "componentList" 2 "e[234]" "e[237]";
	setAttr ".ix" -type "matrix" 2.6383003831403037e-14 -118.81848622402109 -0 0 61.607535067805628 1.3679620784535913e-14 0 0
		 0 -0 118.81848622402109 0 426.01209459532515 69.191162718022696 0 1;
	setAttr ".c[0]"  0 1 1;
	setAttr ".dv" 0;
	setAttr ".sv1" 321;
	setAttr ".sv2" 94;
	setAttr ".d" 1;
	setAttr ".sd" 1;
createNode polyCloseBorder -n "polyCloseBorder3";
	rename -uid "861CE63E-4C6A-EBA3-1935-76B422081DDF";
	setAttr ".ics" -type "componentList" 2 "e[235:236]" "e[822]";
createNode polyBridgeEdge -n "polyBridgeEdge9";
	rename -uid "46442A26-4592-A992-50E3-2BAA21B808FE";
	setAttr ".ics" -type "componentList" 2 "e[214]" "e[250]";
	setAttr ".ix" -type "matrix" 2.6383003831403037e-14 -118.81848622402109 -0 0 61.607535067805628 1.3679620784535913e-14 0 0
		 0 -0 118.81848622402109 0 426.01209459532515 69.191162718022696 0 1;
	setAttr ".c[0]"  0 1 1;
	setAttr ".dv" 0;
	setAttr ".sv1" 63;
	setAttr ".sv2" 217;
	setAttr ".d" 1;
createNode polyBridgeEdge -n "polyBridgeEdge10";
	rename -uid "91E3D156-4DDA-701C-36B5-8F9C0594E907";
	setAttr ".ics" -type "componentList" 4 "e[140:143]" "e[196:199]" "e[215]" "e[251]";
	setAttr ".ix" -type "matrix" 2.6383003831403037e-14 -118.81848622402109 -0 0 61.607535067805628 1.3679620784535913e-14 0 0
		 0 -0 118.81848622402109 0 426.01209459532515 69.191162718022696 0 1;
	setAttr ".c[0]"  0 1 1;
	setAttr ".dv" 0;
	setAttr ".sv1" 211;
	setAttr ".sv2" 30;
	setAttr ".d" 1;
createNode polyBridgeEdge -n "polyBridgeEdge11";
	rename -uid "2B182C22-40C8-D251-8BE8-D89C3BD434F7";
	setAttr ".ics" -type "componentList" 4 "e[148:151]" "e[156:158]" "e[181:183]" "e[188:191]";
	setAttr ".ix" -type "matrix" 2.6383003831403037e-14 -118.81848622402109 -0 0 61.607535067805628 1.3679620784535913e-14 0 0
		 0 -0 118.81848622402109 0 426.01209459532515 69.191162718022696 0 1;
	setAttr ".c[0]"  0 1 1;
	setAttr ".dv" 0;
	setAttr ".sv1" 24;
	setAttr ".sv2" 168;
	setAttr ".d" 1;
createNode polyBridgeEdge -n "polyBridgeEdge12";
	rename -uid "460F9C80-4DB4-4D01-CFFC-E69214EB37BD";
	setAttr ".ics" -type "componentList" 4 "e[159]" "e[164:165]" "e[174:175]" "e[180]";
	setAttr ".ix" -type "matrix" 2.6383003831403037e-14 -118.81848622402109 -0 0 61.607535067805628 1.3679620784535913e-14 0 0
		 0 -0 118.81848622402109 0 426.01209459532515 69.191162718022696 0 1;
	setAttr ".c[0]"  0 1 1;
	setAttr ".dv" 0;
	setAttr ".sv1" 134;
	setAttr ".sv2" 47;
	setAttr ".d" 1;
	setAttr ".td" 1;
createNode polyBridgeEdge -n "polyBridgeEdge13";
	rename -uid "A3A666D7-4F4F-EC17-7F1D-108016091919";
	setAttr ".ics" -type "componentList" 2 "e[166]" "e[173]";
	setAttr ".ix" -type "matrix" 2.6383003831403037e-14 -118.81848622402109 -0 0 61.607535067805628 1.3679620784535913e-14 0 0
		 0 -0 118.81848622402109 0 426.01209459532515 69.191162718022696 0 1;
	setAttr ".c[0]"  0 1 1;
	setAttr ".dv" 0;
	setAttr ".sv1" 44;
	setAttr ".sv2" 158;
	setAttr ".d" 1;
	setAttr ".td" 1;
createNode polyCloseBorder -n "polyCloseBorder4";
	rename -uid "BF75527C-40D3-D1AC-514E-CAB285C0823D";
	setAttr ".ics" -type "componentList" 3 "e[167]" "e[172]" "e[839]";
createNode polyBevel3 -n "polyBevel1";
	rename -uid "17C8B345-4D46-0F4B-0A0E-26B01753A7AB";
	setAttr ".uopa" yes;
	setAttr ".ics" -type "componentList" 2 "e[0:79]" "e[792:793]";
	setAttr ".ix" -type "matrix" 2.6383003831403037e-14 -118.81848622402109 -0 0 61.607535067805628 1.3679620784535913e-14 0 0
		 0 -0 118.81848622402109 0 426.01209459532515 69.191162718022696 0 1;
	setAttr ".ws" yes;
	setAttr ".oaf" yes;
	setAttr ".f" 0.3;
	setAttr ".sg" 3;
	setAttr ".at" 180;
	setAttr ".sn" yes;
	setAttr ".mv" yes;
	setAttr ".mvt" 0.0001;
	setAttr ".sa" 30;
createNode polyCube -n "polyCube1";
	rename -uid "C0054A41-4695-59F2-6D47-7A91E2728B46";
	setAttr ".cuv" 4;
createNode polyCBoolOp -n "polyCBoolOp1";
	rename -uid "C9789D24-4312-7536-DA3D-A587AEB8EF74";
	setAttr -s 2 ".ip";
	setAttr -s 2 ".im";
	setAttr ".op" 2;
	setAttr ".cls" 1;
	setAttr ".mg" -type "Int32Array" 2 14 -16 ;
createNode groupId -n "groupId1";
	rename -uid "28946C9C-4778-08C2-B615-8792178F0755";
	setAttr ".ihi" 0;
createNode groupParts -n "groupParts1";
	rename -uid "0E544696-4886-6469-CE18-8794BA5F13A3";
	setAttr ".ihi" 0;
	setAttr ".ic" -type "componentList" 1 "f[0:647]";
createNode groupId -n "groupId2";
	rename -uid "27504CED-4B11-5A3D-D940-A9A6B806DE82";
	setAttr ".ihi" 0;
createNode groupId -n "groupId3";
	rename -uid "C14F88B3-4810-9A96-9DD6-E39BFC4A310E";
	setAttr ".ihi" 0;
createNode groupParts -n "groupParts2";
	rename -uid "B2366D6F-4EA9-73BF-7D0E-F3B9AF0818D1";
	setAttr ".ihi" 0;
	setAttr ".ic" -type "componentList" 1 "f[0:5]";
createNode groupId -n "groupId4";
	rename -uid "99E31467-4663-FC69-2215-DAAF399CB5B1";
	setAttr ".ihi" 0;
createNode groupId -n "groupId5";
	rename -uid "D9C17634-42C5-02ED-71D9-2A8C8ECF6097";
	setAttr ".ihi" 0;
createNode deleteComponent -n "deleteComponent6";
	rename -uid "92333EA0-420D-BAAA-32F3-269782ACB317";
	setAttr ".dc" -type "componentList" 1 "f[630]";
createNode polyBevel3 -n "polyBevel2";
	rename -uid "3485F60F-4311-A9D4-AF89-1DA7777D7AC5";
	setAttr ".uopa" yes;
	setAttr ".ics" -type "componentList" 70 "e[180]" "e[182]" "e[201]" "e[212]" "e[219]" "e[226]" "e[236]" "e[257]" "e[273]" "e[278]" "e[284]" "e[286]" "e[293]" "e[297]" "e[299]" "e[302]" "e[305]" "e[311]" "e[322]" "e[355]" "e[475]" "e[477]" "e[538]" "e[584]" "e[616]" "e[635]" "e[644]" "e[666]" "e[669]" "e[675]" "e[698]" "e[700]" "e[713]" "e[725]" "e[727]" "e[740:741]" "e[760]" "e[765]" "e[771]" "e[773]" "e[781]" "e[870]" "e[875]" "e[877]" "e[880]" "e[884:885]" "e[914]" "e[940]" "e[968]" "e[979]" "e[995]" "e[1017]" "e[1069]" "e[1072]" "e[1085]" "e[1087]" "e[1097]" "e[1101]" "e[1109]" "e[1116]" "e[1130]" "e[1142]" "e[1154]" "e[1164]" "e[1180]" "e[1182]" "e[1188]" "e[1193]" "e[1229]" "e[1239]";
	setAttr ".ix" -type "matrix" 1 0 0 0 0 1 0 0 0 0 1 0 0 0 0 1;
	setAttr ".ws" yes;
	setAttr ".oaf" yes;
	setAttr ".f" 2;
	setAttr ".sg" 3;
	setAttr ".at" 180;
	setAttr ".sn" yes;
	setAttr ".mv" yes;
	setAttr ".mvt" 0.0001;
	setAttr ".sa" 30;
createNode polySmoothFace -n "polySmoothFace3";
	rename -uid "51367E38-4B97-6B6D-BBD3-01AE814E0B31";
	setAttr ".ics" -type "componentList" 1 "f[*]";
	setAttr ".sdt" 2;
	setAttr ".suv" yes;
	setAttr ".ps" 0.10000000149011612;
	setAttr ".ro" 1;
	setAttr ".ma" yes;
	setAttr ".m08" yes;
select -ne :time1;
	setAttr ".o" 1;
	setAttr ".unw" 1;
select -ne :hardwareRenderingGlobals;
	setAttr ".otfna" -type "stringArray" 22 "NURBS Curves" "NURBS Surfaces" "Polygons" "Subdiv Surface" "Particles" "Particle Instance" "Fluids" "Strokes" "Image Planes" "UI" "Lights" "Cameras" "Locators" "Joints" "IK Handles" "Deformers" "Motion Trails" "Components" "Hair Systems" "Follicles" "Misc. UI" "Ornaments"  ;
	setAttr ".otfva" -type "Int32Array" 22 0 1 1 1 1 1
		 1 1 1 0 0 0 0 0 0 0 0 0
		 0 0 0 0 ;
	setAttr ".fprt" yes;
select -ne :renderPartition;
	setAttr -s 2 ".st";
select -ne :renderGlobalsList1;
select -ne :defaultShaderList1;
	setAttr -s 4 ".s";
select -ne :postProcessList1;
	setAttr -s 2 ".p";
select -ne :defaultRenderingList1;
select -ne :initialShadingGroup;
	setAttr -s 8 ".dsm";
	setAttr ".ro" yes;
	setAttr -s 4 ".gn";
select -ne :initialParticleSE;
	setAttr ".ro" yes;
select -ne :defaultResolution;
	setAttr ".pa" 1;
select -ne :hardwareRenderGlobals;
	setAttr ".ctrs" 256;
	setAttr ".btrs" 512;
connectAttr "groupId1.id" "pCylinderShape1.iog.og[3].gid";
connectAttr ":initialShadingGroup.mwc" "pCylinderShape1.iog.og[3].gco";
connectAttr "groupParts1.og" "pCylinderShape1.i";
connectAttr "groupId2.id" "pCylinderShape1.ciog.cog[0].cgid";
connectAttr "groupId3.id" "pCubeShape3.iog.og[0].gid";
connectAttr ":initialShadingGroup.mwc" "pCubeShape3.iog.og[0].gco";
connectAttr "groupParts2.og" "pCubeShape3.i";
connectAttr "groupId4.id" "pCubeShape3.ciog.cog[0].cgid";
connectAttr "polySmoothFace3.out" "pCylinder2Shape.i";
connectAttr "groupId5.id" "pCylinder2Shape.ciog.cog[0].cgid";
relationship "link" ":lightLinker1" ":initialShadingGroup.message" ":defaultLightSet.message";
relationship "link" ":lightLinker1" ":initialParticleSE.message" ":defaultLightSet.message";
relationship "shadowLink" ":lightLinker1" ":initialShadingGroup.message" ":defaultLightSet.message";
relationship "shadowLink" ":lightLinker1" ":initialParticleSE.message" ":defaultLightSet.message";
connectAttr "layerManager.dli[0]" "defaultLayer.id";
connectAttr "renderLayerManager.rlmi[0]" "defaultRenderLayer.rlid";
connectAttr "polyCylinder1.out" "deleteComponent1.ig";
connectAttr "deleteComponent1.og" "deleteComponent2.ig";
connectAttr "deleteComponent2.og" "polySplitRing1.ip";
connectAttr "pCylinderShape1.wm" "polySplitRing1.mp";
connectAttr "polySplitRing1.out" "deleteComponent3.ig";
connectAttr "deleteComponent3.og" "deleteComponent4.ig";
connectAttr "deleteComponent4.og" "deleteComponent5.ig";
connectAttr "deleteComponent5.og" "polySmoothFace1.ip";
connectAttr "polySmoothFace1.out" "polySmoothFace2.ip";
connectAttr "polySmoothFace2.out" "polyBridgeEdge1.ip";
connectAttr "pCylinderShape1.wm" "polyBridgeEdge1.mp";
connectAttr "polyBridgeEdge1.out" "polyCloseBorder1.ip";
connectAttr "polyCloseBorder1.out" "polyCloseBorder2.ip";
connectAttr "polyCloseBorder2.out" "polyBridgeEdge2.ip";
connectAttr "pCylinderShape1.wm" "polyBridgeEdge2.mp";
connectAttr "polyBridgeEdge2.out" "polyBridgeEdge3.ip";
connectAttr "pCylinderShape1.wm" "polyBridgeEdge3.mp";
connectAttr "polyBridgeEdge3.out" "polyBridgeEdge4.ip";
connectAttr "pCylinderShape1.wm" "polyBridgeEdge4.mp";
connectAttr "polyBridgeEdge4.out" "polyBridgeEdge5.ip";
connectAttr "pCylinderShape1.wm" "polyBridgeEdge5.mp";
connectAttr "polyBridgeEdge5.out" "polyBridgeEdge6.ip";
connectAttr "pCylinderShape1.wm" "polyBridgeEdge6.mp";
connectAttr "polyBridgeEdge6.out" "polyBridgeEdge7.ip";
connectAttr "pCylinderShape1.wm" "polyBridgeEdge7.mp";
connectAttr "polyBridgeEdge7.out" "polyBridgeEdge8.ip";
connectAttr "pCylinderShape1.wm" "polyBridgeEdge8.mp";
connectAttr "polyBridgeEdge8.out" "polyCloseBorder3.ip";
connectAttr "polyCloseBorder3.out" "polyBridgeEdge9.ip";
connectAttr "pCylinderShape1.wm" "polyBridgeEdge9.mp";
connectAttr "polyBridgeEdge9.out" "polyBridgeEdge10.ip";
connectAttr "pCylinderShape1.wm" "polyBridgeEdge10.mp";
connectAttr "polyBridgeEdge10.out" "polyBridgeEdge11.ip";
connectAttr "pCylinderShape1.wm" "polyBridgeEdge11.mp";
connectAttr "polyBridgeEdge11.out" "polyBridgeEdge12.ip";
connectAttr "pCylinderShape1.wm" "polyBridgeEdge12.mp";
connectAttr "polyBridgeEdge12.out" "polyBridgeEdge13.ip";
connectAttr "pCylinderShape1.wm" "polyBridgeEdge13.mp";
connectAttr "polyBridgeEdge13.out" "polyCloseBorder4.ip";
connectAttr "polyCloseBorder4.out" "polyBevel1.ip";
connectAttr "pCylinderShape1.wm" "polyBevel1.mp";
connectAttr "pCylinderShape1.o" "polyCBoolOp1.ip[0]";
connectAttr "pCubeShape3.o" "polyCBoolOp1.ip[1]";
connectAttr "pCylinderShape1.wm" "polyCBoolOp1.im[0]";
connectAttr "pCubeShape3.wm" "polyCBoolOp1.im[1]";
connectAttr "polyBevel1.out" "groupParts1.ig";
connectAttr "groupId1.id" "groupParts1.gi";
connectAttr "polyCube1.out" "groupParts2.ig";
connectAttr "groupId3.id" "groupParts2.gi";
connectAttr "polyCBoolOp1.out" "deleteComponent6.ig";
connectAttr "deleteComponent6.og" "polyBevel2.ip";
connectAttr "pCylinder2Shape.wm" "polyBevel2.mp";
connectAttr "polyBevel2.out" "polySmoothFace3.ip";
connectAttr "defaultRenderLayer.msg" ":defaultRenderingList1.r" -na;
connectAttr "pCubeShape1.iog" ":initialShadingGroup.dsm" -na;
connectAttr "pCubeShape2.iog" ":initialShadingGroup.dsm" -na;
connectAttr "pCylinderShape1.iog.og[3]" ":initialShadingGroup.dsm" -na;
connectAttr "pCylinderShape1.ciog.cog[0]" ":initialShadingGroup.dsm" -na;
connectAttr "pCubeShape3.iog.og[0]" ":initialShadingGroup.dsm" -na;
connectAttr "pCubeShape3.ciog.cog[0]" ":initialShadingGroup.dsm" -na;
connectAttr "pCylinder2Shape.iog" ":initialShadingGroup.dsm" -na;
connectAttr "pCylinder2Shape.ciog.cog[0]" ":initialShadingGroup.dsm" -na;
connectAttr "groupId1.msg" ":initialShadingGroup.gn" -na;
connectAttr "groupId2.msg" ":initialShadingGroup.gn" -na;
connectAttr "groupId3.msg" ":initialShadingGroup.gn" -na;
connectAttr "groupId4.msg" ":initialShadingGroup.gn" -na;
// End of prac1.0004.ma
